Optimal Transport for Counterfactual Estimation: A Method for Causal Inference
…
  ) %>% 
  mutate(
    cig_rec = replace_na(cig_rec, "Unknown or not stated"),
    black_mother = ifelse(black_mother, yes = "Yes", no = "No"),
    is_girl = ifelse(sex == "Female", yes = "Yes", no = "No")
  ) %>% 
  labelled::set_variable_labels(
    black_mother = "Is the mother Black?",
    is_girl = "Is the newborn a girl?",
    nonnatural_delivery = "Is the delivery method non-natural?"
  ) %>% 
  rename(birth_weight = dbwt)
base

# A tibble: 3,940,764 × 9
   sex    birth_weight cig_rec wtgain black_mo…¹ nonna…² mrace…³ rdmet…⁴ is_girl
   <fct>         <dbl> <fct>    <dbl> <chr>      <lgl>   <fct>   <fct>   <chr>  
 1 Male           3017 No           1 No         FALSE   "White" Vaginal No     
 2 Female         3367 No          18 No         FALSE   "White" Vaginal Yes    
 3 Male           4409 No          36 No         FALSE   "White" Vaginal No     
 4 Male           4047 No          25 No         FALSE   "White" Vaginal No     
 5 Male           3119 Yes          0 No         FALSE   "Ameri… Vaginal No     
 6 Female         4295 Yes         34 No         FALSE   "White" Vaginal Yes    
 7 Male           3160 No          47 No         FALSE   "Ameri… Vaginal No     
 8 Male           3711 No          39 No         FALSE   "White" Vaginal No     
 9 Male           3430 No          NA No         FALSE   "White" Vaginal No     
10 Female         3772 No          36 No         FALSE   "White" Vaginal Yes    
# … with 3,940,754 more rows, and abbreviated variable names ¹​black_mother,
#   ²​nonnatural_delivery, ³​mracerec, ⁴​rdmeth_rec
…
